{
    "appPageId": "5a472717-aa09-52f6-5814-da8c48b5f6e5",
    "appPageName": "payerpage",
    "componentName": "payerpageComponent",
    "selectorName": "bh-payerpage",
    "htmlFileName": "payerpage.template.html",
    "tsFileName": "payerpage.component.ts",
    "bkd": {
        "designerHtml": "",
        "designerReference": {},
        "ts": ""
    }
}
