{
    "baeda6d6-cc90-a95c-4558-f6cb52163f01": {
        "name": "FlexLayoutRow",
        "guid": "baeda6d6-cc90-a95c-4558-f6cb52163f01",
        "template": "<div fxLayout=\"row\" %style% %class% %fxFlex% %fxLayoutWrap% %fxLayoutGap% %fxLayoutAlign% %fxShow% %fxHide% %bCustomProps%></div>",
        "designerTemplate": "<div class=\"row drop bkeeper-container-label\"></div>",
        "paletteTemplate": "Flex Layout Row",
        "htmlAttributes": [
            {
                "0": false,
                "_key": "style",
                "_value": "",
                "_type": "kv",
                "_attrDef": "p"
            },
            {
                "1": false,
                "_key": "class",
                "_value": "",
                "_type": "kv",
                "_attrDef": "p"
            },
            {
                "2": false,
                "_key": "fxFlex",
                "_value": "",
                "_type": "kv",
                "_attrDef": "p"
            },
            {
                "_key": "fxLayoutWrap",
                "_value": "",
                "_type": "kv",
                "_attrDef": "p"
            },
            {
                "4": false,
                "_key": "fxLayoutGap",
                "_value": "",
                "_type": "kv",
                "_attrDef": "p"
            },
            {
                "5": false,
                "_key": "fxLayoutAlign",
                "_value": "center center",
                "_type": "kv",
                "_attrDef": "p"
            },
            {
                "_key": "fxShow",
                "_value": "true",
                "_type": "kv",
                "_attrDef": "p"
            },
            {
                "_key": "fxHide",
                "_value": "false",
                "_type": "kv",
                "_attrDef": "p"
            },
            {
                "_key": "fxLayout.xs",
                "_value": "column",
                "_type": "kv",
                "_attrDef": "c"
            }
        ],
        "type": 1
    },
    "870be99e-8fb4-838c-d7bd-99f5c3ef22de": {
        "name": "NG-card",
        "guid": "870be99e-8fb4-838c-d7bd-99f5c3ef22de",
        "template": "<md-card %bCustomProps% %style% %class%></md-card>",
        "designerTemplate": "<div class=\"ad-cards ad-charts-border drop ad-card ad-card-shadow bkeeper-container-label\"><i style=\"font-size: 18px; position:absolute; top:0%; left:75px;\" class=\"material-icons validate\">credit_card</div>",
        "paletteTemplate": "Card",
        "htmlAttributes": [
            {
                "_key": "style",
                "_value": "",
                "_type": "kv",
                "_attrDef": "p"
            },
            {
                "_key": "class",
                "_value": "",
                "_type": "kv",
                "_attrDef": "p"
            }
        ],
        "type": 1
    },
    "6f10d8f6-779e-bb15-e9d1-da18205dd5e8": {
        "name": "FlexLayoutRow",
        "guid": "6f10d8f6-779e-bb15-e9d1-da18205dd5e8",
        "template": "<div fxLayout=\"row\" %style% %class% %fxFlex% %fxLayoutWrap% %fxLayoutGap% %fxLayoutAlign% %fxShow% %fxHide% %bCustomProps%></div>",
        "designerTemplate": "<div class=\"row drop bkeeper-container-label\"></div>",
        "paletteTemplate": "Flex Layout Row",
        "htmlAttributes": [
            {
                "0": false,
                "_key": "style",
                "_value": "",
                "_type": "kv",
                "_attrDef": "p"
            },
            {
                "1": false,
                "_key": "class",
                "_value": "",
                "_type": "kv",
                "_attrDef": "p"
            },
            {
                "2": false,
                "_key": "fxFlex",
                "_value": "auto",
                "_type": "kv",
                "_attrDef": "p"
            },
            {
                "3": false,
                "_key": "fxLayoutWrap",
                "_value": "",
                "_type": "kv",
                "_attrDef": "p"
            },
            {
                "4": false,
                "_key": "fxLayoutGap",
                "_value": "",
                "_type": "kv",
                "_attrDef": "p"
            },
            {
                "5": false,
                "_key": "fxLayoutAlign",
                "_value": "center",
                "_type": "kv",
                "_attrDef": "p"
            },
            {
                "6": false,
                "_key": "fxShow",
                "_value": "true",
                "_type": "kv",
                "_attrDef": "p"
            },
            {
                "7": false,
                "_key": "fxHide",
                "_value": "false",
                "_type": "kv",
                "_attrDef": "p"
            },
            {
                "_key": "fxLayout.xs",
                "_value": "column",
                "_type": "kv",
                "_attrDef": "c"
            }
        ],
        "type": 1
    },
    "0f12c9a8-a434-7179-d2f7-2838948c5703": {
        "name": "FlexLayoutRow",
        "guid": "0f12c9a8-a434-7179-d2f7-2838948c5703",
        "template": "<div fxLayout=\"row\" %style% %class% %fxFlex% %fxLayoutWrap% %fxLayoutGap% %fxLayoutAlign% %fxShow% %fxHide% %bCustomProps%></div>",
        "designerTemplate": "<div class=\"row drop bkeeper-container-label\"></div>",
        "paletteTemplate": "Flex Layout Row",
        "htmlAttributes": [
            {
                "_key": "style",
                "_value": "",
                "_type": "kv",
                "_attrDef": "p"
            },
            {
                "_key": "class",
                "_value": "",
                "_type": "kv",
                "_attrDef": "p"
            },
            {
                "_key": "fxFlex",
                "_value": "",
                "_type": "kv",
                "_attrDef": "p"
            },
            {
                "_key": "fxLayoutWrap",
                "_value": "",
                "_type": "kv",
                "_attrDef": "p"
            },
            {
                "_key": "fxLayoutGap",
                "_value": "",
                "_type": "kv",
                "_attrDef": "p"
            },
            {
                "_key": "fxLayoutAlign",
                "_value": "",
                "_type": "kv",
                "_attrDef": "p"
            },
            {
                "_key": "fxShow",
                "_value": "true",
                "_type": "kv",
                "_attrDef": "p"
            },
            {
                "_key": "fxHide",
                "_value": "false",
                "_type": "kv",
                "_attrDef": "p"
            }
        ],
        "type": 1
    },
    "ce9e775c-afdb-87dd-37d4-78fd91138059": {
        "name": "FlexLayoutCol",
        "guid": "ce9e775c-afdb-87dd-37d4-78fd91138059",
        "template": "<div fxLayout=\"column\" %style% %class% %fxFlex% %fxLayoutWrap% %fxLayoutGap% %fxLayoutAlign% %fxShow% %fxHide% %bCustomProps%></div>",
        "designerTemplate": "<div class=\"column drop bkeeper-container-label\"></div>",
        "paletteTemplate": "Flex Layout Column",
        "htmlAttributes": [
            {
                "0": false,
                "_key": "style",
                "_value": "",
                "_type": "kv",
                "_attrDef": "p"
            },
            {
                "1": false,
                "_key": "class",
                "_value": "",
                "_type": "kv",
                "_attrDef": "p"
            },
            {
                "2": false,
                "_key": "fxFlex",
                "_value": "100",
                "_type": "kv",
                "_attrDef": "p"
            },
            {
                "3": false,
                "_key": "fxLayoutWrap",
                "_value": "",
                "_type": "kv",
                "_attrDef": "p"
            },
            {
                "4": false,
                "_key": "fxLayoutGap",
                "_value": "",
                "_type": "kv",
                "_attrDef": "p"
            },
            {
                "5": false,
                "_key": "fxLayoutAlign",
                "_value": "center center",
                "_type": "kv",
                "_attrDef": "p"
            },
            {
                "6": false,
                "_key": "fxShow",
                "_value": "true",
                "_type": "kv",
                "_attrDef": "p"
            },
            {
                "7": false,
                "_key": "fxHide",
                "_value": "false",
                "_type": "kv",
                "_attrDef": "p"
            }
        ],
        "type": 1
    },
    "f1af225b-0eb3-8fe6-3986-6b7a304e77b4": {
        "name": "FlexLayoutCol",
        "guid": "f1af225b-0eb3-8fe6-3986-6b7a304e77b4",
        "template": "<div fxLayout=\"column\" %style% %class% %fxFlex% %fxLayoutWrap% %fxLayoutGap% %fxLayoutAlign% %fxShow% %fxHide% %bCustomProps%></div>",
        "designerTemplate": "<div class=\"column drop bkeeper-container-label\"></div>",
        "paletteTemplate": "Flex Layout Column",
        "htmlAttributes": [
            {
                "_key": "style",
                "_value": "",
                "_type": "kv",
                "_attrDef": "p"
            },
            {
                "_key": "class",
                "_value": "",
                "_type": "kv",
                "_attrDef": "p"
            },
            {
                "_key": "fxFlex",
                "_value": "",
                "_type": "kv",
                "_attrDef": "p"
            },
            {
                "_key": "fxLayoutWrap",
                "_value": "",
                "_type": "kv",
                "_attrDef": "p"
            },
            {
                "_key": "fxLayoutGap",
                "_value": "",
                "_type": "kv",
                "_attrDef": "p"
            },
            {
                "_key": "fxLayoutAlign",
                "_value": "",
                "_type": "kv",
                "_attrDef": "p"
            },
            {
                "_key": "fxShow",
                "_value": "true",
                "_type": "kv",
                "_attrDef": "p"
            },
            {
                "_key": "fxHide",
                "_value": "false",
                "_type": "kv",
                "_attrDef": "p"
            }
        ],
        "type": 1
    },
    "2790203e-0d37-6a00-8d93-e2b3e21f00f9": {
        "name": "HTML",
        "guid": "2790203e-0d37-6a00-8d93-e2b3e21f00f9",
        "template": "%html%",
        "designerTemplate": "<div class=\"ad-lists bkeeper-container-label bkeeper-general-css\" b-props=\"html-editor\"><i style=\"font-size: 37px;line-height: 2;padding: 1px;\" class=\"material-icons\">code</i></div>",
        "paletteTemplate": "HTML",
        "htmlAttributes": [
            {
                "_key": "style",
                "_value": "",
                "_type": "kv",
                "_attrDef": "p"
            },
            {
                "_key": "class",
                "_value": "",
                "_type": "kv",
                "_attrDef": "p"
            },
            {
                "_key": "html",
                "_value": "<br/><br/>\n<i class=\"material-icons\" style=\"font-size:90px;color:green\">check_circle</i> \n<br/> <br/> \n<div style=\"color:rebeccapurple\" align=\"center\">\n  <b>\n  Thank You For Your Registration<br/> We will Contact You Soon.\n  </b>\n</div><br/>\n<br/>",
                "_type": "a",
                "_attrDef": "p"
            }
        ],
        "type": 7
    },
    "3a255ceb-a62a-6870-cc1c-24f73b5af1ee": {
        "name": "HTML",
        "guid": "3a255ceb-a62a-6870-cc1c-24f73b5af1ee",
        "template": "%html%",
        "designerTemplate": "<div class=\"ad-lists bkeeper-container-label bkeeper-general-css\" b-props=\"html-editor\"><i style=\"font-size: 37px;line-height: 2;padding: 1px;\" class=\"material-icons\">code</i></div>",
        "paletteTemplate": "HTML",
        "htmlAttributes": [
            {
                "_key": "style",
                "_value": "",
                "_type": "kv",
                "_attrDef": "p"
            },
            {
                "_key": "class",
                "_value": "",
                "_type": "kv",
                "_attrDef": "p"
            },
            {
                "_key": "html",
                "_value": "",
                "_type": "a",
                "_attrDef": "p"
            }
        ],
        "type": 7
    }
}
