{
    "appPageId": "1a670081-31b4-435c-ca6f-7047001b9cf1",
    "appPageName": "compleated",
    "componentName": "compleatedComponent",
    "selectorName": "bh-compleated",
    "htmlFileName": "compleated.template.html",
    "tsFileName": "compleated.component.ts",
    "bkd": {
        "designerHtml": "",
        "designerReference": {},
        "ts": ""
    }
}
