{
    "08c65b96-f05a-4f1d-0f9d-2ca88fb0d293": {
        "appPageName": "home",
        "componentName": "homeComponent"
    },
    "8f2b2b11-cfe9-6b9b-73b5-8177047baff1": {
        "appPageName": "mdetails",
        "componentName": "mdetailsComponent"
    },
    "c11dfc0e-58fc-f6fd-abac-2a77189afe6d": {
        "appPageName": "addmembers",
        "componentName": "addmembersComponent"
    },
    "5a472717-aa09-52f6-5814-da8c48b5f6e5": {
        "appPageName": "payerpage",
        "componentName": "payerpageComponent"
    },
    "6e39491a-c0ae-5dc7-ca9f-3a66cea47862": {
        "appPageName": "policyconfirm",
        "componentName": "policyconfirmComponent"
    },
    "1a670081-31b4-435c-ca6f-7047001b9cf1": {
        "appPageName": "compleated",
        "componentName": "compleatedComponent"
    }
}
